Place,Name,Sex,BirthDate,Age,State,Equipment,Division,BodyweightKg,WeightClassKg,Squat1Kg,Squat2Kg,Squat3Kg,Best3SquatKg,Bench1Kg,Bench2Kg,Bench3Kg,Best3BenchKg,Deadlift1Kg,Deadlift2Kg,Deadlift3Kg,Best3DeadliftKg,TotalKg,Event
1,Stacey Hartwig,F,1998-02-21,23,OH,Wraps,F_JCR_APF,113.4,90+,165,-182.5,-182.5,165,70,77.5,-82.5,77.5,160,170,-177.5,170,412.5,SBD
1,Chelsea Moore #1,F,1995-07-21,25,IN,Wraps,F_OCR_APF,66.5,67.5,142.5,155,-170,155,80,-87.5,-87.5,80,170,177.5,182.5,182.5,417.5,SBD
1,Kristie Cabrera,F,1987-04-24,34,OH,Wraps,F_OCR_APF,73.8,75,102.5,112.5,125,125,42.5,47.5,52.5,52.5,102.5,110,120,120,297.5,SBD
1,Nicole Mason #1,F,1987-08-09,33,OH,Multi-ply,F_OEM_APF,50.5,52,185,200,202.5,202.5,87.5,92.5,-95,92.5,157.5,170,172.5,172.5,467.5,SBD
2,Kaylee Shaw,F,1988-01-18,33,OH,Multi-ply,F_OEM_APF,51.7,52,-120,120,137.5,137.5,70,-77.5,-77.5,70,120,137.5,142.5,142.5,350,SBD
1,Kaylee Shaw,F,1988-01-18,33,OH,Multi-ply,F_SEM_APF,51.7,52,-120,120,137.5,137.5,70,-77.5,-77.5,70,120,137.5,142.5,142.5,350,SBD
1,Jamie Notch Francis,F,1983-08-28,37,OH,Raw,F_SR_APF,140.2,90+,,,,,82.5,92.5,-97.5,92.5,125,147.5,157.5,157.5,250,BD
1,Ethan Francis,M,1999-01-06,22,MI,Raw,M_JR_APF,103.9,110,242.5,260,272.5,272.5,152.5,162.5,167.5,167.5,260,277.5,287.5,287.5,727.5,SBD
DQ,Justin Brown,M,1990-03-14,31,IN,Raw,M_OR_APF,74.2,75,105,117.5,137.5,137.5,-102.5,-102.5,-102.5,,160,165,-172.5,165,,SBD
1,Ethan Francis,M,1999-01-06,22,MI,Raw,M_OR_APF,103.9,110,242.5,260,272.5,272.5,152.5,162.5,167.5,167.5,260,277.5,287.5,287.5,727.5,SBD
1,Josh Spurgeon,M,1997-07-28,23,OH,Wraps,M_JCR_APF,174.7,140+,340,355,-365,355,185,190,-195,190,300,-317.5,-317.5,300,845,SBD
1,Nate Matthews,M,1959-01-11,62,OH,Wraps,M_MCR_5_APF,108.3,110,147.5,175,190,190,177.5,185,187.5,187.5,-267.5,277.5,-282.5,277.5,655,SBD
1,Kenny Guerrero,M,1995-03-07,26,OH,Wraps,M_OCR_APF,60.9,67.5,70,85,-100,85,60,65,-72.5,65,115,122.5,137.5,137.5,287.5,SBD
1,Truman Niles,M,1986-05-04,35,OH,Wraps,M_OCR_APF,86.9,90,-180,190,197.5,197.5,135,142.5,150,150,222.5,235,242.5,242.5,590,SBD
1,Mario Rizo,M,1975-04-11,46,OH,Wraps,M_OCR_APF,99.1,100,-200,200,227.5,227.5,212.5,-227.5,-227.5,212.5,192.5,210,227.5,227.5,667.5,SBD
1,Justin Oliver #1,M,1987-04-16,34,OH,Wraps,M_OCR_APF,108.8,110,297.5,320,332.5,332.5,202.5,210,-215,210,307.5,325,-332.5,325,867.5,SBD
2,Jeremiah Fletcher,M,1995-03-26,26,OH,Wraps,M_OCR_APF,102.7,110,192.5,205,-217.5,205,137.5,142.5,-150,142.5,227.5,250,270,270,617.5,SBD
1,Dan Shaver,M,1989-07-14,31,OH,Wraps,M_OCR_APF,121.8,125,305,320,-330,320,175,185,-197.5,185,280,295,-312.5,295,800,SBD
2,Patrick McCarty,M,1993-07-30,27,OH,Wraps,M_OCR_APF,124.3,125,217.5,-235,-235,217.5,125,-137.5,-137.5,125,197.5,205,-215,205,547.5,SBD
1,Brad Abbott,M,1989-04-14,32,IN,Wraps,M_OCR_APF,132.8,140,300,320,337.5,337.5,220,227.5,232.5,232.5,300,320,337.5,337.5,907.5,SBD
2,Gabriel Cabrera,M,1990-09-07,30,OH,Wraps,M_OCR_APF,138.5,140,275,282.5,-295,282.5,155,-160,-160,155,202.5,-210,-210,202.5,640,SBD
1,Eric Schneider,M,1975-12-29,45,OH,Single-ply,M_MES_2_APF,108,110,250,-275,275,275,205,-220,-220,205,215,-230,230,230,710,SBD
1,Willis McCoy,M,1969-03-25,52,OH,Single-ply,M_MES_3_APF,65.9,67.5,182.5,-210,210,210,82.5,-85,-85,82.5,-195,215,227.5,227.5,520,SBD
1,RJ Fox,M,1985-12-21,35,OH,Single-ply,M_OES_APF,88.9,90,242.5,260,272.5,272.5,227.5,-240,-240,227.5,227.5,-245,-245,227.5,727.5,SBD
1,Tyler Butcher,M,1988-07-28,32,OH,Single-ply,M_OES_APF,157.5,140+,455,500,-502.5,500,320,347.5,-365,347.5,-320,320,-322.5,320,1167.5,SBD
1,Jeremy Ward,M,1977-10-13,43,OH,Multi-ply,M_MEM_1_APF,109.1,110,297.5,317.5,-335,317.5,185,-192.5,-192.5,185,265,-282.5,-282.5,265,767.5,SBD
1,Joe Upham,M,1975-02-06,46,OH,Multi-ply,M_MEM_2_APF,114.8,125,332.5,-365,-365,332.5,220,-240,-240,220,227.5,250,-272.5,250,802.5,SBD
DQ,Jeff Brown,M,1970-08-10,50,OH,Multi-ply,M_MEM_3_APF,130.8,140,300,-315,315,315,-205,-205,-205,,-247.5,-247.5,-247.5,,,SBD
DQ,Deven Sturgeon,M,1999-07-07,21,OH,Multi-ply,M_OEM_APF,86.7,90,297.5,302.5,-317.5,302.5,-197.5,-197.5,-197.5,,227.5,237.5,-250,237.5,,SBD
1,Mario D'Amico,M,1992-06-06,28,OH,Multi-ply,M_OEM_APF,99,100,392.5,-410,410,410,252.5,262.5,-272.5,262.5,282.5,295,-305,295,967.5,SBD
2,Dylan Kohl,M,1987-06-05,,OH,Multi-ply,M_OEM_APF,98.6,100,352.5,-365,-365,352.5,-227.5,227.5,-240,227.5,-287.5,287.5,-295,287.5,867.5,SBD
3,Paul Tyler,M,1991-03-14,30,OH,Multi-ply,M_OEM_APF,98.5,100,-310,310,335,335,142.5,180,-190,180,265,285,-290,285,800,SBD
4,Skyler Cline,M,1998-02-11,23,MI,Multi-ply,M_OEM_APF,97.2,100,197.5,212.5,-220,212.5,142.5,150,157.5,157.5,185,197.5,212.5,212.5,582.5,SBD
DQ,Marc Anthony van der Molen,M,1993-12-03,27,OH,Multi-ply,M_OEM_APF,97.5,100,-410,-422.5,422.5,422.5,-210,-210,-210,,-272.5,-272.5,-272.5,,,SBD
DQ,Tyler E Roy,M,1996-09-29,24,OH,Multi-ply,M_OEM_APF,99.2,100,375,-395,-395,375,-255,-255,-255,,-250,-250,-250,,,SBD
1,Toby Hurley,M,1979-08-11,41,VA,Multi-ply,M_OEM_APF,109.8,110,247.5,265,275,275,170,185,-187.5,185,205,220,-235,220,680,SBD
DQ,Dustin Saum,M,1990-01-07,31,OH,Multi-ply,M_OEM_APF,109,110,-387.5,-387.5,-387.5,,-327.5,-327.5,-327.5,,-252.5,-252.5,-252.5,,,SBD
1,Dayan Neely,M,1977-08-27,43,OH,Multi-ply,M_OEM_APF,115,125,422.5,-460,460,460,245,-262.5,-262.5,245,317.5,340,-355,340,1045,SBD
2,Kyle Hoy,M,1993-03-01,28,OH,Multi-ply,M_OEM_APF,116.1,125,372.5,392.5,410,410,250,260,272.5,272.5,305,320,-340,320,1002.5,SBD
3,Anthony Bland,M,1988-04-21,33,OH,Multi-ply,M_OEM_APF,122.1,125,352.5,375,-387.5,375,210,220,230,230,-307.5,-307.5,307.5,307.5,912.5,SBD
4,Matthew Crist,M,1992-11-02,28,OH,Multi-ply,M_OEM_APF,119.4,125,327.5,350,365,365,-227.5,227.5,-242.5,227.5,317.5,-340,-340,317.5,910,SBD
5,Andrew Bates,M,1985-12-21,35,OH,Multi-ply,M_OEM_APF,118.9,125,310,325,-337.5,325,-240,-240,242.5,242.5,295,312.5,-317.5,312.5,880,SBD
6,Jacob Huff,M,1982-11-09,38,OH,Multi-ply,M_OEM_APF,121.4,125,-317.5,317.5,340,340,192.5,205,-220,205,227.5,255,272.5,272.5,817.5,SBD
7,Joe Upham,M,1975-02-06,46,OH,Multi-ply,M_OEM_APF,114.8,125,332.5,-365,-365,332.5,220,-240,-240,220,227.5,250,-272.5,250,802.5,SBD
DQ,Steve Steucher,M,1986-12-26,34,MI,Multi-ply,M_OEM_APF,124.7,125,457.5,-477.5,-477.5,457.5,-282.5,-285,-290,,-255,-255,-255,,,SBD
1,Campbell Judy,M,1993-03-04,28,WV,Multi-ply,M_OEM_APF,133.4,140,307.5,-317.5,317.5,317.5,177.5,190,-200,190,227.5,250,272.5,272.5,780,SBD
1,Chad Wilson,M,1971-08-25,49,OH,Raw,M_MR_2_APF,68.8,75,,,,,62.5,70,77.5,77.5,145,150,160,160,237.5,BD
DQ,Tyler Donnell,M,1985-09-05,35,OH,Single-ply,M_OES_APF,107.1,110,,,,,220,-235,-235,220,-245,-245,-245,,,BD
DQ,Tyler Donnell,M,1985-09-05,35,OH,Single-ply,M_SES_APF,107.1,110,,,,,220,-235,-235,220,-245,-245,-245,,,BD
1,Frank Schuetz,M,1975-08-13,45,OH,Raw,M_MR_2_APF,121.5,125,,,,,170,182.5,-190,182.5,,,,,182.5,B
1,Craig Hoffer,M,1962-01-10,59,OH,Raw,M_MR_4_APF,197.7,140+,,,,,182.5,192.5,200,200,,,,,200,B
DQ,Richard Fairchild,M,1995-02-01,26,OH,Raw,M_OR_APF,125.8,140,,,,,-277.5,-277.5,-277.5,,,,,,,B
